module simplestorage

require (
	github.com/gorilla/handlers v1.4.0
	github.com/gorilla/mux v1.6.2
	github.com/mitchellh/mapstructure v1.0.0
	github.com/rs/cors v1.5.0
	gopkg.in/mgo.v2 v2.0.0-20180705113604-9856a29383ce
)
